{
  "info": {
    "subdir": "noarch"
  },
  "packages": {
    "flare-0.2.0-0.tar.bz2": {
      "build": "0",
      "build_number": 0,
      "depends": [
        "openjdk >=8"
      ],
      "license": "Apache-2.0",
      "md5": "50fca30637e776c00b9fb7f18e5f7a51",
      "name": "flare",
      "noarch": "generic",
      "sha256": "4eee4e07e795282b99addcbbd045df293dd0fbfdb647f42b47b2a382c77ac4a2",
      "size": 422041,
      "subdir": "noarch",
      "timestamp": 1662815909347,
      "version": "0.2.0"
    }
  },
  "packages.conda": {},
  "removed": [],
  "repodata_version": 1
}
